module ServerApp

go 1.20

require (
	golang.org/x/crypto v0.6.0
	golang.org/x/net v0.6.0
)

require github.com/nfnt/resize v0.0.0-20180221191011-83c6a9932646

require golang.org/x/exp v0.0.0-20230425010034-47ecfdc1ba53

require gopkg.in/yaml.v2 v2.4.0

require (
	github.com/mattn/go-sqlite3 v1.14.16
	golang.org/x/sys v0.5.0 // indirect
	golang.org/x/text v0.7.0 // indirect
	gopkg.in/alexcesaro/quotedprintable.v3 v3.0.0-20150716171945-2caba252f4dc // indirect
	gopkg.in/gomail.v2 v2.0.0-20160411212932-81ebce5c23df
)
